<?xml version="1.0" encoding="UTF-8"?>
<svg width="56px" height="56px" viewBox="0 0 56 56" version="1.1" xmlns="http://www.w3.org/2000/svg" xmlns:xlink="http://www.w3.org/1999/xlink">
    <!-- Generator: Sketch 55 (78076) - https://sketchapp.com -->
    <title>Icon/Form/A12_Exploitation-active@2x</title>
    <desc>Created with Sketch.</desc>
    <g id="Icon/Form/A12_Exploitation-active" stroke="none" stroke-width="1" fill="none" fill-rule="evenodd">
        <g id="settings-1" transform="translate(0.000000, 0.000000)" fill-rule="nonzero">
            <path d="M25.2826884,18.9143136 L27.312831,18.9143136 C27.6321792,20.5338656 28.2708758,22.0279593 29.1490835,23.3509735 L27.7120163,24.7880407 C27.198778,25.301279 27.198778,26.1338656 27.7120163,26.6471039 L29.2745418,28.2096293 C29.78778,28.7228676 30.6203666,28.7228676 31.1336049,28.2096293 L32.5706721,26.7725621 C33.8936864,27.6621752 35.3991853,28.2894664 37.007332,28.6088147 L37.007332,30.6389572 C37.007332,31.3688961 37.6004073,31.9505662 38.3189409,31.9505662 L40.5315682,31.9505662 C41.2615071,31.9505662 41.8431772,31.3574908 41.8431772,30.6389572 L41.8431772,28.6088147 C43.4627291,28.2894664 44.9568228,27.6507699 46.2798371,26.7725621 L47.7169043,28.2096293 C48.2301426,28.7228676 49.0627291,28.7228676 49.5759674,28.2096293 L51.1384929,26.6471039 C51.6517312,26.1338656 51.6517312,25.301279 51.1384929,24.7880407 L49.7014257,23.3509735 C50.5910387,22.0279593 51.2183299,20.5224603 51.5376782,18.9143136 L53.5678208,18.9143136 C54.2977597,18.9143136 54.8794297,18.3212383 54.8794297,17.6027047 L54.8794297,15.4014827 C54.8794297,14.6715438 54.2863544,14.0898737 53.5678208,14.0898737 L51.5376782,14.0898737 C51.2183299,12.4703218 50.5796334,10.9762281 49.7014257,9.65321385 L51.1384929,8.21614664 C51.6517312,7.70290835 51.6517312,6.87032179 51.1384929,6.3570835 L49.5645621,4.79455804 C49.0513238,4.28131976 48.2187373,4.28131976 47.705499,4.79455804 L46.2684318,6.23162525 C44.9454175,5.34201222 43.4399185,4.71472098 41.8317719,4.39537271 L41.8317719,2.36523014 C41.8317719,1.63529124 41.2386965,1.05362118 40.5201629,1.05362118 L38.3075356,1.05362118 C37.5775967,1.05362118 36.9959267,1.64669654 36.9959267,2.36523014 L36.9959267,4.39537271 C35.3763747,4.71472098 33.8822811,5.35341752 32.5592668,6.23162525 L31.1336049,4.79455804 C30.6203666,4.28131976 29.78778,4.28131976 29.2745418,4.79455804 L27.7120163,6.3570835 C27.198778,6.87032179 27.198778,7.70290835 27.7120163,8.21614664 L29.1490835,9.65321385 C28.2594705,10.9762281 27.6321792,12.4817271 27.312831,14.0898737 L25.2826884,14.0898737 C24.5527495,14.0898737 23.9710794,14.6829491 23.9710794,15.4014827 L23.9710794,17.61411 C23.9710794,18.3326436 24.5527495,18.9143136 25.2826884,18.9143136 Z M39.4138493,10.9077963 C42.5046843,10.9077963 45.0138493,13.4169613 45.0138493,16.5077963 C45.0138493,19.5986314 42.5046843,22.1077963 39.4138493,22.1077963 C36.3230143,22.1077963 33.8138493,19.5986314 33.8138493,16.5077963 C33.8138493,13.4169613 36.3230143,10.9077963 39.4138493,10.9077963 Z" id="XMLID_698_" fill="#FA822A"></path>
            <path d="M39.4936864,43.1733768 L40.6684318,40.3676741 C40.7482688,40.1737841 40.7482688,39.9684888 40.6684318,39.7745988 C40.5885947,39.5807088 40.4403259,39.4324399 40.2464358,39.3526029 L37.6688391,38.2805051 C37.1441955,38.0638045 36.893279,37.4593238 37.1099796,36.9346802 C37.3266802,36.4100367 37.9311609,36.1591202 38.4558045,36.3758208 L41.0334012,37.4479185 C41.7405295,37.7444562 42.2879837,38.2919104 42.5731161,38.9876334 C42.8582485,39.6947617 42.8582485,40.4703218 42.5731161,41.1660448 L41.409776,43.9717475 C40.8167006,45.42022 39.1515275,46.115943 37.703055,45.5114623 L35.889613,44.7587128 C34.8175153,46.2071853 33.5515275,47.4731731 32.1144603,48.5338656 L32.8672098,50.3473075 C33.4602851,51.79578 32.7759674,53.4495479 31.3274949,54.0540285 L28.5217923,55.2173686 C28.1682281,55.3656375 27.8032587,55.4340692 27.4382892,55.4340692 C26.3319756,55.4340692 25.2712831,54.7725621 24.8150713,53.6776538 L24.0623218,51.8642118 C22.2830957,52.1379389 20.5038697,52.1379389 18.7246436,51.8642118 L17.9718941,53.6776538 C17.3788187,55.1261263 15.7136456,55.810444 14.2651731,55.2173686 L11.4594705,54.0540285 C10.7523422,53.7574908 10.204888,53.2100367 9.9197556,52.5143136 C9.63462322,51.8071853 9.63462322,51.0316253 9.9197556,50.3359022 L10.6725051,48.5224603 C9.22403259,47.4503625 7.95804481,46.1843747 6.89735234,44.7473075 L5.08391039,45.500057 C3.63543788,46.0931324 1.97026477,45.4088147 1.37718941,43.9603422 L0.213849287,41.1888554 C-0.379226069,39.7403829 0.30509165,38.0866151 1.75356415,37.4821344 L3.56700611,36.7293849 C3.29327902,34.9501589 3.29327902,33.1709328 3.56700611,31.3917067 L1.75356415,30.6389572 C1.04643585,30.3424196 0.49898167,29.7949654 0.213849287,29.0992424 C-0.0712830957,28.3921141 -0.0712830957,27.616554 0.213849287,26.920831 L1.37718941,24.1151283 C1.67372709,23.408 2.22118126,22.8605458 2.91690428,22.5754134 C3.62403259,22.2902811 4.39959267,22.2902811 5.09531568,22.5754134 L6.90875764,23.3281629 C7.9808554,21.8796904 9.24684318,20.6137026 10.6839104,19.5530102 L9.9311609,17.7395682 C9.64602851,17.0324399 9.64602851,16.2568798 9.9311609,15.5611568 C10.2276986,14.8540285 10.7751527,14.3065743 11.4708758,14.021442 L14.2765784,12.8581018 C15.7250509,12.2650265 17.3788187,12.9493442 17.9832994,14.3978167 L19.0553971,16.9754134 C19.2720978,17.500057 19.0211813,18.1045377 18.4965377,18.3212383 C17.9718941,18.5379389 17.3674134,18.2870224 17.1507128,17.7623788 L16.0786151,15.1847821 C15.9189409,14.7855967 15.4627291,14.603112 15.0749491,14.7627862 L12.2692464,15.9261263 C12.0753564,16.0059633 11.9270876,16.1542322 11.8472505,16.3481222 C11.7674134,16.5420122 11.7674134,16.7473075 11.8472505,16.9411976 L12.9193483,19.5187943 C13.1132383,19.9750061 12.9535642,20.4996497 12.5429735,20.7733768 C10.7979633,21.9367169 9.31527495,23.4194053 8.15193483,25.1644155 C7.87820774,25.5750061 7.35356415,25.7346802 6.89735234,25.5407902 L4.3197556,24.4686925 C4.12586558,24.3888554 3.92057026,24.3888554 3.72668024,24.4686925 C3.53279022,24.5485295 3.38452138,24.6967984 3.30468432,24.8906884 L2.1413442,27.696391 C2.06150713,27.8902811 2.06150713,28.0955764 2.1413442,28.2894664 C2.22118126,28.4833564 2.3694501,28.6316253 2.56334012,28.7114623 L5.14093686,29.7835601 C5.59714868,29.9660448 5.84806517,30.4564725 5.75682281,30.9354949 C5.34623218,32.9998534 5.34623218,35.0870224 5.75682281,37.1399756 C5.85947047,37.618998 5.59714868,38.0980204 5.14093686,38.2919104 L2.56334012,39.3640081 C2.16415479,39.5236823 1.98167006,39.9798941 2.1413442,40.3676741 L3.30468432,43.1733768 C3.46435845,43.5725621 3.90916497,43.7550468 4.30835031,43.5953727 L6.88594705,42.5232749 C7.34215886,42.3293849 7.86680244,42.4890591 8.14052953,42.8996497 C9.30386965,44.6446599 10.786558,46.1273483 12.5315682,47.2906884 C12.9421589,47.5644155 13.101833,48.0890591 12.907943,48.5452709 L11.8358452,51.1228676 C11.7560081,51.3167576 11.7560081,51.522053 11.8358452,51.715943 C11.9156823,51.909833 12.0639511,52.0581018 12.2578411,52.1379389 L15.0635438,53.301279 C15.4513238,53.4609532 15.9075356,53.2670631 16.0672098,52.8792831 L17.1393075,50.3016864 C17.3217923,49.8454745 17.81222,49.594558 18.2912424,49.6858004 C20.3556008,50.096391 22.4427699,50.096391 24.495723,49.6858004 C24.9747454,49.5831527 25.4537678,49.8454745 25.6476578,50.3016864 L26.7197556,52.8792831 C26.8794297,53.2784684 27.3356415,53.4609532 27.7234216,53.301279 L30.5291242,52.1265336 C30.9283096,51.9668595 31.1107943,51.5106477 30.9511202,51.1228676 L29.8904277,48.5452709 C29.6965377,48.0890591 29.8562118,47.5644155 30.2668024,47.2906884 C32.0118126,46.1273483 33.494501,44.6446599 34.6578411,42.8996497 C34.9315682,42.4890591 35.4562118,42.3293849 35.9124236,42.5232749 L38.4900204,43.5953727 C38.8778004,43.7550468 39.3340122,43.5725621 39.4936864,43.1733768 Z M21.3364562,26.9778574 C19.4545825,26.9892627 17.6867617,27.7420122 16.3409369,29.0764318 C15.0179226,30.4222566 14.299389,32.2014827 14.3107943,34.0833564 C14.3221996,35.9652301 15.0635438,37.7330509 16.4093686,39.0560652 C17.7323829,40.3676741 19.5002037,41.0862077 21.3592668,41.0862077 C21.3820774,41.0862077 21.3934827,41.0862077 21.4162933,41.0862077 C23.298167,41.0748024 25.0659878,40.3334582 26.389002,38.9876334 C27.7120163,37.6418086 28.4305499,35.8625825 28.4191446,33.9807088 C28.4191446,33.410444 28.8753564,32.9428269 29.4456212,32.9428269 C29.4570265,32.9428269 29.4570265,32.9428269 29.4570265,32.9428269 C30.0272912,32.9428269 30.4949084,33.3990387 30.4949084,33.9693035 C30.5177189,36.3986314 29.5824847,38.702501 27.8716904,40.4361059 C26.1608961,42.1697108 23.8798371,43.1277556 21.4391039,43.1505662 C21.4162933,43.1505662 21.3934827,43.1505662 21.3706721,43.1505662 C18.9641548,43.1505662 16.694501,42.2267373 14.9723014,40.5273483 C13.2386965,38.816554 12.2806517,36.5354949 12.2578411,34.0947617 C12.2350305,31.6654338 13.1702648,29.3615642 14.8810591,27.6279593 C16.5918534,25.8943544 18.8729124,24.9363096 21.3136456,24.913499 C21.3250509,24.913499 21.3250509,24.913499 21.3250509,24.913499 C21.8953157,24.913499 22.3629328,25.3697108 22.3629328,25.9399756 C22.3629328,26.5102403 21.906721,26.9778574 21.3364562,26.9778574 Z M53.5564155,19.9521955 L52.3588595,19.9521955 C52.0623218,21.0927251 51.60611,22.1762281 51.0130346,23.2027047 L51.8684318,24.0581018 C52.7808554,24.9705255 52.7808554,26.4646191 51.8684318,27.3770428 L50.3059063,28.9395682 C49.8725051,29.3843747 49.2794297,29.6238859 48.6521385,29.6238859 C48.0362525,29.6238859 47.4431772,29.3843747 46.9983707,28.9395682 L46.1429735,28.0841711 C45.1279022,28.6772464 44.0329939,29.122053 42.8924644,29.4299959 L42.8924644,30.6503625 C42.8924644,31.9505662 41.8317719,32.9998534 40.5429735,32.9998534 L38.3303462,32.9998534 C37.0301426,32.9998534 35.9808554,31.9391609 35.9808554,30.6503625 L35.9808554,29.4414012 C34.8403259,29.1448635 33.7568228,28.6886517 32.7303462,28.0955764 L31.8749491,28.9509735 C31.4415479,29.39578 30.8484725,29.6352912 30.2211813,29.6352912 C29.6052953,29.6352912 29.01222,29.39578 28.5674134,28.9509735 L27.004888,27.3884481 C26.0924644,26.4760244 26.0924644,24.9819308 27.004888,24.0695071 L27.8602851,23.21411 C27.2672098,22.1990387 26.8224033,21.1041303 26.5144603,19.9636008 L25.305499,19.9636008 C24.0052953,19.9636008 22.9560081,18.9029084 22.9560081,17.61411 L22.9560081,15.4014827 C22.9560081,14.101279 24.0167006,13.0519919 25.305499,13.0519919 L26.5144603,13.0519919 C26.810998,11.9114623 27.2672098,10.8279593 27.8602851,9.80148269 L27.004888,8.94608554 C26.0924644,8.03366191 26.0924644,6.53956823 27.004888,5.6271446 L28.5674134,4.06461914 C29.0008147,3.61981263 29.59389,3.38030143 30.2211813,3.38030143 C30.8370672,3.38030143 31.4301426,3.61981263 31.8749491,4.06461914 L32.7303462,4.92001629 C33.7454175,4.32694094 34.8403259,3.88213442 35.9808554,3.57419145 L35.9808554,2.36523014 C35.9808554,1.06502648 37.0415479,0.0157393075 38.3303462,0.0157393075 L40.5429735,0.0157393075 C41.8431772,0.0157393075 42.8924644,1.07643177 42.8924644,2.36523014 L42.8924644,3.57419145 C44.0329939,3.87072912 45.1164969,4.32694094 46.1429735,4.92001629 L46.9983707,4.06461914 C47.4317719,3.61981263 48.0248473,3.38030143 48.6521385,3.38030143 C49.2680244,3.38030143 49.8610998,3.61981263 50.3059063,4.06461914 L51.8684318,5.6271446 C52.7808554,6.53956823 52.7808554,8.03366191 51.8684318,8.94608554 L51.0130346,9.80148269 C51.60611,10.816554 52.0509165,11.9114623 52.3588595,13.0519919 L53.5564155,13.0519919 C54.8566191,13.0519919 55.9059063,14.1126843 55.9059063,15.4014827 L55.9059063,17.6027047 C55.9059063,18.9029084 54.8452138,19.9521955 53.5564155,19.9521955 Z M50.5226069,18.7204236 C50.6138493,18.2299959 51.0358452,17.8878371 51.5262729,17.8992424 L53.5564155,17.8992424 C53.7046843,17.8992424 53.8301426,17.7737841 53.8301426,17.6255153 L53.8301426,15.412888 C53.8301426,15.2646191 53.7046843,15.1391609 53.5564155,15.1391609 L51.5262729,15.1391609 C51.0358452,15.1391609 50.602444,14.7855967 50.5112016,14.3065743 C50.214664,12.8466965 49.6558045,11.4780611 48.8232179,10.2348839 C48.5494908,9.83569857 48.595112,9.2882444 48.9486762,8.93468024 L50.3857434,7.49761303 C50.4997963,7.38356008 50.4997963,7.21248065 50.3857434,7.0984277 L48.8232179,5.53590224 C48.7547862,5.46747047 48.6863544,5.45606517 48.6293279,5.45606517 C48.5837067,5.45606517 48.5038697,5.46747047 48.4354379,5.53590224 L46.9983707,6.97296945 C46.6562118,7.31512831 46.1087576,7.37215479 45.698167,7.0984277 C44.4549898,6.26584114 43.0863544,5.69557637 41.6264766,5.41044399 C41.1474542,5.30779633 40.79389,4.88580041 40.79389,4.39537271 L40.79389,2.36523014 C40.79389,2.2169613 40.6684318,2.09150305 40.5201629,2.09150305 L38.3075356,2.09150305 C38.1592668,2.09150305 38.0338086,2.2169613 38.0338086,2.36523014 L38.0338086,4.38396741 C38.0338086,4.87439511 37.6802444,5.30779633 37.201222,5.3990387 C35.7413442,5.69557637 34.3727088,6.25443585 33.1295316,7.0870224 C32.7303462,7.36074949 32.1828921,7.31512831 31.8293279,6.96156415 L30.3922607,5.52449695 C30.3238289,5.45606517 30.2553971,5.44465988 30.1983707,5.44465988 C30.1527495,5.44465988 30.0729124,5.45606517 30.0044807,5.52449695 L28.4533605,7.0984277 C28.3849287,7.16685947 28.3735234,7.23529124 28.3735234,7.29231772 C28.3735234,7.3379389 28.3849287,7.41777597 28.4533605,7.48620774 L29.8904277,8.92327495 C30.2325866,9.26543381 30.289613,9.81288798 30.0158859,10.2234786 C29.1832994,11.4666558 28.6130346,12.8352912 28.3279022,14.295169 C28.2252546,14.7741914 27.8032587,15.1277556 27.312831,15.1277556 L25.2826884,15.1277556 C25.1344196,15.1277556 25.0089613,15.2532138 25.0089613,15.4014827 L25.0089613,17.6255153 C25.0089613,17.7737841 25.1344196,17.8992424 25.2826884,17.8992424 L27.312831,17.8992424 C27.8032587,17.8992424 28.2366599,18.2528065 28.3279022,18.7318289 C28.6244399,20.1917067 29.1832994,21.5603422 30.0158859,22.8035193 C30.289613,23.2027047 30.2439919,23.7501589 29.8904277,24.103723 L28.4533605,25.5407902 C28.3393075,25.6548432 28.3393075,25.8259226 28.4533605,25.9399756 L30.0158859,27.502501 C30.0843177,27.5709328 30.1527495,27.5823381 30.209776,27.5823381 C30.2553971,27.5823381 30.3352342,27.5709328 30.403666,27.502501 L31.8407332,26.0654338 C32.0346232,25.8601385 32.3083503,25.7574908 32.5706721,25.7574908 C32.7645621,25.7574908 32.9698574,25.8145173 33.1409369,25.9285703 C34.3841141,26.7611568 35.7527495,27.3314216 37.2126273,27.616554 C37.6916497,27.7192016 38.0452138,28.1411976 38.0452138,28.6316253 L38.0452138,30.6617678 C38.0452138,30.8100367 38.1706721,30.9354949 38.3189409,30.9354949 L40.5315682,30.9354949 C40.6798371,30.9354949 40.8052953,30.8100367 40.8052953,30.6617678 L40.8052953,28.6316253 C40.8052953,28.1411976 41.1588595,27.7077963 41.6378819,27.616554 C43.0977597,27.3200163 44.4663951,26.7611568 45.7095723,25.9285703 C46.1087576,25.6548432 46.6562118,25.7004644 47.009776,26.0540285 L48.4468432,27.4910957 C48.5152749,27.5595275 48.5837067,27.5709328 48.6407332,27.5709328 C48.6863544,27.5709328 48.7661914,27.5595275 48.8346232,27.4910957 L50.3971487,25.9285703 C50.5112016,25.8145173 50.5112016,25.6434379 50.3971487,25.5293849 L48.9600815,24.0923177 C48.6179226,23.7501589 48.5608961,23.2027047 48.8346232,22.7921141 C49.6672098,21.5489369 50.2374745,20.1803014 50.5226069,18.7204236 Z M39.4252546,9.86991446 C43.0749491,9.86991446 46.0517312,12.8466965 46.0517312,16.496391 C46.0517312,20.1460855 43.0863544,23.1228676 39.4252546,23.1228676 C35.7755601,23.1228676 32.798778,20.1574908 32.798778,16.496391 C32.798778,12.8466965 35.7641548,9.86991446 39.4252546,9.86991446 Z M39.4252546,21.0585092 C41.9344196,21.0585092 43.9873727,19.0169613 43.9873727,16.496391 C43.9873727,13.9758208 41.9458248,11.9342729 39.4252546,11.9342729 C36.9046843,11.9342729 34.8631365,13.9758208 34.8631365,16.496391 C34.8631365,19.0169613 36.9046843,21.0585092 39.4252546,21.0585092 Z" id="Combined-Shape" fill="#022748"></path>
        </g>
    </g>
</svg>