<svg xmlns="http://www.w3.org/2000/svg" xmlns:xlink="http://www.w3.org/1999/xlink" width="32" height="32" viewBox="0 0 32 32">
    <defs>
        <path id="a" d="M3.637.889c1.431 0 2.45.383 3.056 1.148v13.074H6.62c-.145-.667-.497-1.228-1.055-1.685a2.955 2.955 0 0 0-1.928-.685c-1.382 0-2.328.518-2.837 1.555H0V3.815c0-.938.34-1.66 1.018-2.167.68-.506 1.552-.76 2.62-.76zm6.948 0c1.067 0 1.94.253 2.619.76.679.505 1.018 1.228 1.018 2.166v10.481h-.8c-.582-1.037-1.528-1.555-2.837-1.555-.728 0-1.37.228-1.928.685-.558.457-.91 1.018-1.055 1.685H7.53V2.037C8.136 1.272 9.154.889 10.585.889z"/>
    </defs>
    <g fill="none" fill-rule="evenodd">
        <path d="M1 0h32v32H1z"/>
        <g transform="translate(9 8)">
            <mask id="b" fill="#fff">
                <use xlink:href="#a"/>
            </mask>
            <use fill="#aeb9c4" fill-rule="nonzero" xlink:href="#a"/>
            <g fill="#aeb9c4" mask="url(#b)">
                <path d="M-7.111-6.222h28v28h-28z"/>
            </g>
        </g>
    </g>
</svg>
