<svg xmlns="http://www.w3.org/2000/svg" width="56" height="56" viewBox="0 0 56 56">
    <g fill="none" fill-rule="evenodd">
        <path fill="#FA822A" d="M52.77 47.663l-.58-3.465c-.307-.558-.708-1.005-1.247-.975a1.18 1.18 0 0 0-.922.632c-.302.604-1.945 1.873-2.965 2.382a1.181 1.181 0 0 0-.632 1.03c0 1.411.417 2.949.597 4.205.086.3.277.708.433.992.21.257.423.446.633.614.42.335.842.623.994.776.212.214.512.34.814.343.868 0 1.437-.606 1.754-1.12.315-.513.507-1.072.668-1.678.324-1.212.47-2.56.47-3.556a1.12 1.12 0 0 0-.018-.18"/>
        <path fill="#022748" fill-rule="nonzero" d="M43.058 37.918l.168-.958c.267-1.511.35-2.04.418-2.767.158-1.676.008-3.121-.58-4.885a.136.136 0 0 0-.076-.073l-3.322-1.095.985-1.18 4.646-5.56c.683-.978 1.064-2.263 1.247-3.885.218-1.964.416-2.764 1.119-3.698.018-.025.011-.122-.007-.14-.888-.887-2.344-1.653-4.595-2.485a33.875 33.875 0 0 0-5.396-1.487l-.443-.082-.244-.379c-.985-1.526-2.178-2.618-4.158-4.029-1.944-1.387-2.857-2.206-3.066-3.042-.007-.03-.077-.085-.105-.085h-2.864c-.176.005-.137-.047-.142.111v4.537l-.859.155c-1.574.283-2.514.534-3.28.917a3.024 3.024 0 0 0-1.314 1.304l-.49.927-.925-.493c-1.407-.75-2.362-1.624-2.736-2.743a.148.148 0 0 0-.041-.057.898.898 0 0 0-.584-.22c-.209.014-.365.064-.64.192-.226.107-1.059.536-1.198.572-.026.007-.087.117-.08.137.423 1.267.542 2.264.56 4.093l.009.998-.996.055c-1.094.06-1.95-.045-2.585-.361-.753-.376-1.313-.961-2.001-1.993-.01-.015-.026-.03-.023-.029-.65-.324-1.468-.456-2.376-.38-.987.081-1.807.401-2.388.981a.124.124 0 0 0-.031.063l-.577 3.459c-.005.03.028.098.047.11l6.302 3.44.142.333c.266.623.455 1.136.857 2.278l.004.01c.53 1.509.794 2.192 1.155 2.907.074.09.155.187.29.346l.037.044c.854 1.012 1.22 1.534 1.495 2.309l.086.242-.036.254c-.855 5.97-1.612 8.703-4.004 12.524a.12.12 0 0 0-.017.053c0 1.089.753 2.093 2.154 2.904 1.243.718 2.787 1.323 5.861 2.349.283-.007.317-.044.418-.23l.434-.796.849.317c.085.032.163.06.32.115l.035.013c.575.203.83.306 1.117.478.8.478 1.27 1.005 1.54 1.814.01.03.075.077.111.077h4.05c.037 0 .11-.06.115-.081l.573-2.864 3.342-2.208.364.032c1.023.09 1.711.41 3.208 1.345 1.603 1 2.85 1.466 4.545 1.466 1.213 0 2.532-.628 3.833-1.763 1.346-1.177 2.065-2.355 2.065-3.547 0-.03-.052-.098-.083-.107l-2.24-.559zm2.751-1.465a2.235 2.235 0 0 1 1.66 2.132c0 1.907-1.025 3.583-2.78 5.118-1.648 1.44-3.413 2.28-5.207 2.28-2.154 0-3.746-.595-5.65-1.784-.99-.618-1.488-.88-1.953-.985l-1.98 1.308-.403 2.018c-.209 1.002-1.139 1.752-2.162 1.752H23.29a2.23 2.23 0 0 1-2.097-1.507c-.097-.291-.231-.442-.63-.68a2.644 2.644 0 0 0-.418-.184c-.463.41-1.061.584-1.848.584h-.17l-.16-.053c-3.319-1.104-4.981-1.751-6.411-2.578-1.986-1.148-3.197-2.764-3.197-4.72.003-.412.123-.82.34-1.16 2.158-3.447 2.862-5.918 3.662-11.427-.172-.373-.455-.753-1.034-1.44l-.036-.042c-.186-.22-.277-.329-.384-.461l-.069-.084-.05-.097c-.445-.866-.73-1.598-1.317-3.266l-.004-.01c-.31-.883-.487-1.37-.67-1.821l-5.67-3.096a2.231 2.231 0 0 1-1.099-2.275l.578-3.463c.075-.454.294-.878.618-1.2.965-.964 2.246-1.464 3.688-1.583 1.27-.106 2.467.087 3.501.603.335.176.62.437.816.741.496.743.829 1.09 1.188 1.27.114.057.29.101.523.128-.049-.968-.167-1.613-.426-2.387-.377-1.15.32-2.456 1.468-2.795-.048.013-.024 0 .18-.101.258-.134.487-.248.728-.36.489-.23.869-.351 1.385-.386.76-.05 1.63.258 2.186.814.248.239.437.534.555.872.118.354.438.721.947 1.087.445-.531.99-.967 1.61-1.276.82-.409 1.708-.68 2.983-.94V2.171C24.588.98 25.3.04 26.756 0h2.897c.994.003 1.899.718 2.13 1.675-.007-.027.162.18.484.47.403.361.987.814 1.767 1.37 2.021 1.442 3.34 2.619 4.448 4.22 1.749.35 3.607.87 5.304 1.499 2.513.928 4.19 1.81 5.35 2.969.747.752.838 2 .203 2.86-.406.54-.542 1.088-.72 2.684-.217 1.939-.69 3.534-1.664 4.92L43.24 27.12l.398.131a2.216 2.216 0 0 1 1.41 1.403c.68 2.041.86 3.778.676 5.735a24.031 24.031 0 0 1-.273 1.975l.359.09zm2.93 15.809c.05.04.925.698 1.085.857a.13.13 0 0 0 .07.034c.322 0 .617-.22.865-.622.223-.362.385-.784.55-1.4a13.613 13.613 0 0 0 .433-3.28l-.003-.016-.547-3.28c-.125-.206-.193-.279-.158-.29a.146.146 0 0 0-.079.057c-.413.826-2.172 2.22-3.426 2.846a.146.146 0 0 0-.06.098c0 .355.03.746.09 1.19.052.387.116.762.23 1.364.176.932.206 1.094.253 1.422.057.168.165.413.28.632.117.133.245.25.416.388zm5.092-4.419c0 1.177-.18 2.605-.505 3.826-.212.795-.442 1.392-.788 1.957-.592.96-1.475 1.615-2.651 1.615a2.213 2.213 0 0 1-1.544-.65c-.033-.033-.734-.56-.904-.695l-.004-.003a4.986 4.986 0 0 1-.79-.77l-.105-.155a6.428 6.428 0 0 1-.523-1.208l-.03-.14c-.049-.343-.068-.449-.25-1.412-.12-.637-.19-1.041-.248-1.473a11.013 11.013 0 0 1-.109-1.47 2.227 2.227 0 0 1 1.21-1.962c.891-.445 2.334-1.588 2.499-1.918a2.24 2.24 0 0 1 1.795-1.204c.99-.057 1.686.543 2.22 1.512l.087.157.607 3.635c.02.112.03.225.033.358z"/>
    </g>
</svg>
