<svg xmlns="http://www.w3.org/2000/svg" xmlns:xlink="http://www.w3.org/1999/xlink" width="56" height="56" viewBox="0 0 56 56">
    <defs>
        <path id="a" d="M3.057 22.446L0 20l3.057-2v-5L2 11V3l4-3h4l3 3 1 7-1 3v6l9 6v5H3.057v-7.554z"/>
        <path id="c" d="M54.583 33.217A3.885 3.885 0 0 1 56 36.234v3.932c0 .628-.503 1.131-1.131 1.131a1.127 1.127 0 0 1-1.132-1.131v-3.932c0-.491-.217-.96-.594-1.268-3.463-2.835-7.212-4.732-7.932-5.086a1.4 1.4 0 0 1-.777-1.246v-5.531c0-.377.183-.732.503-.937.412-.275.652-.72.652-1.212V15.23a4.041 4.041 0 0 0-4.035-4.035H40.32a4.041 4.041 0 0 0-4.034 4.035v5.725c0 .492.24.937.651 1.212.309.205.503.56.503.937v4.514c0 .629-.503 1.132-1.131 1.132a1.127 1.127 0 0 1-1.132-1.132V23.64a3.698 3.698 0 0 1-1.154-2.686V15.23A6.302 6.302 0 0 1 40.32 8.93h1.234a6.302 6.302 0 0 1 6.297 6.298v5.725a3.698 3.698 0 0 1-1.154 2.686v4.446c1.36.697 4.743 2.548 7.886 5.131zM19.954.074c4.309 0 7.817 3.497 7.817 7.806v7.429a4.452 4.452 0 0 1-1.497 3.337v6.103c1.612.811 6.126 3.234 10.332 6.685a4.686 4.686 0 0 1 1.725 3.646v5.086c0 .628-.502 1.131-1.131 1.131H1.131A1.127 1.127 0 0 1 0 40.166V35.08a4.72 4.72 0 0 1 1.703-3.646c4.206-3.451 8.72-5.863 10.331-6.685v-6.103a4.47 4.47 0 0 1-1.497-3.337V7.89c0-4.308 3.509-7.817 7.817-7.817h1.6zm4.88 26.469a1.426 1.426 0 0 1-.811-1.314v-7.155c0-.377.183-.731.503-.937a2.185 2.185 0 0 0 .994-1.84V7.88a5.56 5.56 0 0 0-5.554-5.554h-1.6A5.56 5.56 0 0 0 12.81 7.88v7.429c0 .742.378 1.428.995 1.84.308.205.503.56.503.937v7.154c0 .56-.32 1.063-.823 1.314-.937.457-5.817 2.926-10.332 6.629a2.449 2.449 0 0 0-.891 1.897v3.943h33.794v-3.954c0-.732-.32-1.429-.891-1.898C30.663 29.47 25.77 27 24.834 26.543z"/>
    </defs>
    <g fill="none" fill-rule="evenodd">
        <g transform="translate(33 17)">
            <mask id="b" fill="#fff">
                <use xlink:href="#a"/>
            </mask>
            <use fill="#D8D8D8" xlink:href="#a"/>
            <g fill="#FA822A" mask="url(#b)">
                <path d="M-33-17h56v56h-56z"/>
            </g>
        </g>
        <g transform="translate(0 7)">
            <mask id="d" fill="#fff">
                <use xlink:href="#c"/>
            </mask>
            <use fill="#3C92CA" fill-rule="nonzero" xlink:href="#c"/>
            <g fill="#022748" mask="url(#d)">
                <path d="M0-7h56v56H0z"/>
            </g>
        </g>
    </g>
</svg>
