<?xml version="1.0" encoding="UTF-8"?>
<svg width="163px" height="26px" viewBox="0 0 163 26" version="1.1" xmlns="http://www.w3.org/2000/svg" xmlns:xlink="http://www.w3.org/1999/xlink">
    <!-- Generator: Sketch 54.1 (76490) - https://sketchapp.com -->
    <title>Logo/KYRbyCA</title>
    <desc>Created with Sketch.</desc>
    <defs>
        <path d="M7.10542736e-14,24 L7.10542736e-14,0 L8.2611276,0 L8.2611276,24 L7.10542736e-14,24 Z M18.9080119,12 L33.9703264,24 L22.6468843,24 L8.79525223,12.1068249 L8.79525223,11.8575668 L22.7181009,0 L34.041543,0 L18.9080119,12 Z M50.8486647,24 L38.8130564,24 L48.5697329,14.421365 L34.7537092,0 L46.4688427,0 L54.6231454,9.40059347 L63.2759644,0 L74.5994065,0 L50.8486647,24 Z M100.664688,7.58456973 C100.664688,6.91987798 100.421367,6.41543199 99.9347181,6.07121662 C99.4480688,5.72700125 98.8130603,5.55489614 98.0296736,5.55489614 L85.0682493,5.55489614 L85.0682493,9.89910979 L98.2077151,9.89910979 C98.8249289,9.89910979 99.3887215,9.72700469 99.8991098,9.38278932 C100.409498,9.03857395 100.664688,8.43917341 100.664688,7.58456973 Z M98.6706231,24 L91.2997033,15.4540059 L85.0682493,15.4540059 L85.0682493,24 L76.8071217,24 L76.8071217,0 L99.7388724,0 C100.949561,0 102.09495,0.14243181 103.175074,0.427299703 C104.255198,0.712167596 105.204744,1.15133234 106.023739,1.74480712 C106.842734,2.3382819 107.489612,3.09198356 107.964392,4.00593472 C108.439172,4.91988588 108.676558,5.99405911 108.676558,7.22848665 C108.676558,8.29674125 108.510387,9.28782926 108.178042,10.2017804 C107.845696,11.1157316 107.382792,11.8991065 106.789318,12.5519288 C106.195843,13.204751 105.501488,13.7151317 104.706231,14.0830861 C103.910975,14.4510404 103.03858,14.6350148 102.089021,14.6350148 L100.593472,14.6350148 L109.495549,24 L98.6706231,24 Z" id="path-1"></path>
    </defs>
    <g id="Logo/KYRbyCA" stroke="none" stroke-width="1" fill="none" fill-rule="evenodd">
        <g id="logo">
            <g id="Color/Main/Blue">
                <mask id="mask-2" fill="white">
                    <use xlink:href="#path-1"></use>
                </mask>
                <use id="Mask" fill="#022748" fill-rule="nonzero" xlink:href="#path-1"></use>
                <g id="Color/Identity/Main" mask="url(#mask-2)" fill="#00A7D6">
                    <rect id="Rectangle" x="0" y="0" width="110" height="25"></rect>
                </g>
            </g>
        </g>
        <g id="/test5" transform="translate(114.000000, 3.000000)" fill="#AEB9C4">
            <path d="M42.753462,11.0114264 L42.7891621,10.9923214 L48.1427888,8.04875141 L48.1427888,10.6452522 L43.8541524,13.2183795 L43.7702479,13.264575 L45.7934764,17.7479518 L45.7408866,17.7479518 L42.606387,17.7479518 C42.0410731,17.7479518 42.0799385,17.2789866 41.4835054,15.7758791 C41.4555347,15.6988905 41.3022634,15.3068258 41.0813509,14.7450086 L41.0784097,14.7466279 C41.0784097,14.7466279 37.0860191,16.6647516 34.9652791,17.2884992 C34.6436208,17.3862062 34.5168332,17.4249347 34.1542717,17.5068782 C32.1113978,17.9121107 29.7097671,18.2242561 27.8072702,17.3197543 C26.793647,16.8518763 25.920265,15.8753517 25.4718192,14.887005 C25.284831,14.4817725 25.1891626,14.060506 25.1111602,13.6238832 C25.1111602,13.4678777 25.0819432,13.2437908 25.0819432,13.1091215 C25.0819432,10.8557498 26.7935111,9.14812278 28.4152539,7.88500078 C28.7582469,7.61987426 29.3372854,7.24548998 29.5653132,7.12277899 C29.818753,6.98634275 30.2476302,6.81280781 30.6375061,6.62568363 C31.3976897,6.29437742 32.3236621,5.9725836 33.2340068,5.90436548 C33.8928139,5.87514857 34.5907586,5.9356209 34.8403936,6.59062344 C35.0275175,7.13636823 35.183387,7.69787651 35.2770165,8.25924905 C32.204892,8.32162381 29.6317647,9.89661958 27.6823848,12.1891274 C27.1481909,12.89278 26.5128927,13.7173767 26.9650076,14.6531336 C27.616205,15.9435699 30.2087649,15.6901302 31.8773907,15.4640049 C33.6006454,15.1443854 34.8871412,14.7778822 36.3218961,14.1852555 C36.7273998,14.02925 37.5226428,13.7173767 37.5226428,13.7173767 L38.2712759,13.3587557 L39.7685411,12.5946319 L40.1567726,12.4004502 C39.4588012,10.6334207 38.7473073,8.83624926 38.7473073,8.83624926 L37.1326307,12.235875 C36.9506707,12.6166465 36.7583822,13.2183795 36.2748766,13.4991337 C35.2925089,14.1852555 32.8751143,14.5438748 32.8751143,14.5438748 L32.7075589,14.5661614 C32.7075589,14.5661614 35.7745202,8.78692024 37.256021,6.08904356 L40.5321218,6.08904356 L42.753462,11.0114264 Z M48.1425168,7.05850172 L44.0255135,9.30412762 C43.6999141,9.46529624 43.353252,9.42194651 43.1210126,9.2261252 C42.7623917,8.82075751 42.5908946,8.2437573 42.4503823,7.77587902 C42.4503823,7.77587902 42.9632407,7.64582973 43.3705108,7.44661107 C44.0877527,7.0723628 48.1423808,5 48.1423808,5 L48.1423808,7.05850172 L48.1425168,7.05850172 Z M46.4738914,19.1445218 L46.4738914,21 L25,21 L25,19.1445218 L46.4738914,19.1445218 Z" id="Mask"></path>
            <path d="M5.724,16.3939007 C7.092,16.3939007 8.244,15.3679007 8.244,13.6399007 C8.244,12.7579007 7.992,12.0559007 7.488,11.5699007 C6.984,11.0839007 6.39,10.8499007 5.706,10.8499007 C5.004,10.8499007 4.41,11.1019007 3.906,11.5879007 C3.384,12.0739007 3.132,12.7579007 3.132,13.6219007 C3.132,15.3679007 4.302,16.3939007 5.724,16.3939007 Z M5.904,9.1759007 C7.02,9.1759007 7.992,9.5719007 8.838,10.3639007 C9.684,11.1559007 10.098,12.2359007 10.098,13.6219007 C10.098,14.9719007 9.684,16.0519007 8.874,16.8619007 C8.064,17.6899007 7.092,18.1039007 5.976,18.1039007 C4.734,18.1039007 3.762,17.6899007 3.096,16.8619007 L3.096,17.9239007 L1.26,17.9239007 L1.26,6.0799007 L3.132,6.0799007 L3.132,10.4539007 C3.798,9.6079007 4.716,9.1759007 5.904,9.1759007 Z M17.6117143,9.3919007 L19.4837143,9.3919007 L19.4837143,17.6899007 C19.4837143,19.0039007 19.0697143,20.0299007 18.2237143,20.7679007 C17.3777143,21.5059007 16.3877143,21.8839007 15.2357143,21.8839007 C14.2637143,21.8839007 13.3817143,21.6139007 12.5897143,21.0739007 C11.7977143,20.5159007 11.2757143,19.7239007 11.0237143,18.6799007 L12.8057143,18.0679007 C13.0757143,19.3639007 14.1197143,20.1559007 15.3257143,20.1559007 C16.6217143,20.1559007 17.6477143,19.2559007 17.6477143,17.6899007 L17.6477143,16.3399007 C17.0717143,17.3299007 16.2257143,17.8339007 15.0917143,17.8339007 C14.2097143,17.8339007 13.4177143,17.5279007 12.7337143,16.9159007 C12.0497143,16.3039007 11.7077143,15.4399007 11.7077143,14.3059007 L11.7077143,9.3919007 L13.5797143,9.3919007 L13.5797143,14.0179007 C13.5797143,15.2959007 14.3177143,16.0339007 15.3977143,16.0339007 C16.6397143,16.0339007 17.6117143,15.0799007 17.6117143,13.4959007 L17.6117143,9.3919007 Z" id="by" fill-rule="nonzero"></path>
        </g>
    </g>
</svg>